\relax 
\providecommand\hyper@newdestlabel[2]{}
\providecommand\babel@aux[2]{}
\@nameuse{bbl@beforestart}
\catcode `:\active 
\catcode `;\active 
\catcode `!\active 
\catcode `?\active 
\providecommand\HyperFirstAtBeginDocument{\AtBeginDocument}
\HyperFirstAtBeginDocument{\ifx\hyper@anchor\@undefined
\global\let\oldcontentsline\contentsline
\gdef\contentsline#1#2#3#4{\oldcontentsline{#1}{#2}{#3}}
\global\let\oldnewlabel\newlabel
\gdef\newlabel#1#2{\newlabelxx{#1}#2}
\gdef\newlabelxx#1#2#3#4#5#6{\oldnewlabel{#1}{{#2}{#3}}}
\AtEndDocument{\ifx\hyper@anchor\@undefined
\let\contentsline\oldcontentsline
\let\newlabel\oldnewlabel
\fi}
\fi}
\global\let\hyper@last\relax 
\gdef\HyperFirstAtBeginDocument#1{#1}
\providecommand\HyField@AuxAddToFields[1]{}
\providecommand\HyField@AuxAddToCoFields[2]{}
\providecommand \oddpage@label [2]{}
\babel@aux{french}{}
\@writefile{toc}{\contentsline {section}{\numberline {1}Introduction}{3}{section.1}\protected@file@percent }
\@writefile{toc}{\contentsline {subsection}{\numberline {1.1}Cahier des charges}{3}{subsection.1.1}\protected@file@percent }
\@writefile{toc}{\contentsline {subsection}{\numberline {1.2}Approche adoptée}{3}{subsection.1.2}\protected@file@percent }
\@writefile{lof}{\contentsline {figure}{\numberline {1}{\ignorespaces Schéma de la création d'un rébus}}{3}{figure.1}\protected@file@percent }
\@writefile{toc}{\contentsline {subsection}{\numberline {1.3}Quelques mots de vocabulaire}{3}{subsection.1.3}\protected@file@percent }
\@writefile{toc}{\contentsline {section}{\numberline {2}Choix technologiques}{5}{section.2}\protected@file@percent }
\@writefile{lof}{\contentsline {figure}{\numberline {2}{\ignorespaces Fonctionnement de l'application}}{5}{figure.2}\protected@file@percent }
\@writefile{toc}{\contentsline {subsection}{\numberline {2.1}Langage et bibliothèques du backend}{5}{subsection.2.1}\protected@file@percent }
\@writefile{toc}{\contentsline {subsection}{\numberline {2.2}Langage et bibliothèques du frontend}{5}{subsection.2.2}\protected@file@percent }
\@writefile{lof}{\contentsline {figure}{\numberline {3}{\ignorespaces Fonctionnement du routeur local}}{5}{figure.3}\protected@file@percent }
\@writefile{toc}{\contentsline {subsection}{\numberline {2.3}Phonétiseur}{6}{subsection.2.3}\protected@file@percent }
\@writefile{toc}{\contentsline {section}{\numberline {3}Développements logiciel}{7}{section.3}\protected@file@percent }
\@writefile{toc}{\contentsline {subsection}{\numberline {3.1}Développement d'une API web}{7}{subsection.3.1}\protected@file@percent }
\@writefile{lot}{\contentsline {table}{\numberline {1}{\ignorespaces Routes de l'API}}{7}{table.1}\protected@file@percent }
\@writefile{toc}{\contentsline {subsection}{\numberline {3.2}Développement d'une interface graphique}{8}{subsection.3.2}\protected@file@percent }
\@writefile{lof}{\contentsline {figure}{\numberline {4}{\ignorespaces Page d'accueil}}{8}{figure.4}\protected@file@percent }
\@writefile{lof}{\contentsline {figure}{\numberline {5}{\ignorespaces Page << Créer >>}}{9}{figure.5}\protected@file@percent }
\@writefile{lof}{\contentsline {figure}{\numberline {6}{\ignorespaces Page << Deviner >>}}{10}{figure.6}\protected@file@percent }
\@writefile{lof}{\contentsline {figure}{\numberline {7}{\ignorespaces Page << Contribuer >>}}{10}{figure.7}\protected@file@percent }
\@writefile{lof}{\contentsline {figure}{\numberline {8}{\ignorespaces Page << Ajouter un mot >>}}{11}{figure.8}\protected@file@percent }
\@writefile{lof}{\contentsline {figure}{\numberline {9}{\ignorespaces Page << Liste des mots >>}}{11}{figure.9}\protected@file@percent }
\@writefile{lof}{\contentsline {figure}{\numberline {10}{\ignorespaces Page << Liste des mots >> en mode administrateur}}{12}{figure.10}\protected@file@percent }
\@writefile{lof}{\contentsline {figure}{\numberline {11}{\ignorespaces Page << connexion >>}}{12}{figure.11}\protected@file@percent }
\@writefile{lof}{\contentsline {figure}{\numberline {12}{\ignorespaces Diagramme de séquence de l'authentification à l'API}}{13}{figure.12}\protected@file@percent }
\@writefile{toc}{\contentsline {subsection}{\numberline {3.3}Modélisation et remplissage d'une base de données}{14}{subsection.3.3}\protected@file@percent }
\@writefile{lof}{\contentsline {figure}{\numberline {13}{\ignorespaces Modèle E/A de notre base de données}}{14}{figure.13}\protected@file@percent }
\@writefile{lot}{\contentsline {table}{\numberline {2}{\ignorespaces Tableau comparatif des méthodes}}{15}{table.2}\protected@file@percent }
\@writefile{toc}{\contentsline {subsection}{\numberline {3.4}Déploiement de l'application}{16}{subsection.3.4}\protected@file@percent }
\@writefile{toc}{\contentsline {section}{\numberline {4}Algorithmes et structures de données}{17}{section.4}\protected@file@percent }
\@writefile{toc}{\contentsline {subsection}{\numberline {4.1}Première approche}{17}{subsection.4.1}\protected@file@percent }
\@writefile{lof}{\contentsline {figure}{\numberline {14}{\ignorespaces Exemple de la première approche sur <<Jurassic Parc>>}}{17}{figure.14}\protected@file@percent }
\@writefile{toc}{\contentsline {subsection}{\numberline {4.2}Approche retenue}{18}{subsection.4.2}\protected@file@percent }
\@writefile{toc}{\contentsline {subsubsection}{\numberline {4.2.1}Analyse syllabique}{18}{subsubsection.4.2.1}\protected@file@percent }
\@writefile{loa}{\contentsline {algocf}{\numberline {1}{\ignorespaces Fonction \textit  {rech}}}{19}{algocf.1}\protected@file@percent }
\@writefile{lot}{\contentsline {table}{\numberline {3}{\ignorespaces Exemple d'exécution de \textit  {rech} sur la phrase << château ambulant >>}}{20}{table.3}\protected@file@percent }
\@writefile{lot}{\contentsline {table}{\numberline {4}{\ignorespaces Exemple d'exécution de \textit  {rech} sur la phrase << château ambulant >>}}{20}{table.4}\protected@file@percent }
\@writefile{lof}{\contentsline {figure}{\numberline {15}{\ignorespaces Rébus pour la phrase << château ambulant >>}}{21}{figure.15}\protected@file@percent }
\@writefile{lof}{\contentsline {figure}{\numberline {16}{\ignorespaces Rébus pour la phrase << soupe aux choux >>}}{21}{figure.16}\protected@file@percent }
\@writefile{toc}{\contentsline {subsubsection}{\numberline {4.2.2}Analyse par phonème}{22}{subsubsection.4.2.2}\protected@file@percent }
\@writefile{lof}{\contentsline {figure}{\numberline {17}{\ignorespaces Rébus pour la phrase "va ranger"}}{22}{figure.17}\protected@file@percent }
\@writefile{toc}{\contentsline {subsubsection}{\numberline {4.2.3}Approximations}{23}{subsubsection.4.2.3}\protected@file@percent }
\@writefile{lof}{\contentsline {figure}{\numberline {18}{\ignorespaces Rébus pour le mot "baignoire "}}{23}{figure.18}\protected@file@percent }
\@writefile{toc}{\contentsline {subsubsection}{\numberline {4.2.4}Complexité}{23}{subsubsection.4.2.4}\protected@file@percent }
\@writefile{toc}{\contentsline {section}{\numberline {5}Analyse des résultats}{24}{section.5}\protected@file@percent }
\@writefile{toc}{\contentsline {subsection}{\numberline {5.1}Analyse syllabique}{24}{subsection.5.1}\protected@file@percent }
\@writefile{lof}{\contentsline {figure}{\numberline {19}{\ignorespaces Exemples de rébus générés grâce à l'analyse syllabique}}{24}{figure.19}\protected@file@percent }
\@writefile{toc}{\contentsline {subsection}{\numberline {5.2}Analyse par phonèmes}{24}{subsection.5.2}\protected@file@percent }
\@writefile{lof}{\contentsline {figure}{\numberline {20}{\ignorespaces Exemples de rébus générés grâce à l'analyse par phonèmes}}{24}{figure.20}\protected@file@percent }
\@writefile{toc}{\contentsline {subsection}{\numberline {5.3}Approximations}{25}{subsection.5.3}\protected@file@percent }
\@writefile{lof}{\contentsline {figure}{\numberline {21}{\ignorespaces Exemples de rébus générés grâce au dictionnaire d'approximations}}{25}{figure.21}\protected@file@percent }
\@writefile{lof}{\contentsline {subfigure}{\numberline{(a)}{\ignorespaces {Sans la fonction \textit {verifMotIsMot}}}}{25}{figure.21}\protected@file@percent }
\@writefile{lof}{\contentsline {subfigure}{\numberline{(b)}{\ignorespaces {Avec la fonction \textit {verifMotIsMot}}}}{25}{figure.21}\protected@file@percent }
\@writefile{lof}{\contentsline {subfigure}{\numberline{(a)}{\ignorespaces {Sans la fonction \textit {verifMotIsMot}}}}{25}{figure.21}\protected@file@percent }
\@writefile{lof}{\contentsline {subfigure}{\numberline{(b)}{\ignorespaces {Avec la fonction \textit {verifMotIsMot}}}}{25}{figure.21}\protected@file@percent }
\@writefile{lof}{\contentsline {subfigure}{\numberline{(a)}{\ignorespaces {Rébus pour le mot "rideau"}}}{25}{figure.21}\protected@file@percent }
\@writefile{lof}{\contentsline {subfigure}{\numberline{(b)}{\ignorespaces {Rébus pour la phrase "être ou ne pas être"}}}{25}{figure.21}\protected@file@percent }
\@writefile{lof}{\contentsline {subfigure}{\numberline{(a)}{\ignorespaces {Rébus pour le mot "ordinateur"}}}{25}{figure.21}\protected@file@percent }
\@writefile{lof}{\contentsline {subfigure}{\numberline{(b)}{\ignorespaces {Rébus pour la phrase "soupe aux choux"}}}{25}{figure.21}\protected@file@percent }
\@writefile{lof}{\contentsline {subfigure}{\numberline{(a)}{\ignorespaces {Rébus pour la phrase "seigneur des anneaux"}}}{25}{figure.21}\protected@file@percent }
\@writefile{lof}{\contentsline {subfigure}{\numberline{(b)}{\ignorespaces {Rébus pour la phrase "cogner"}}}{25}{figure.21}\protected@file@percent }
\@writefile{lof}{\contentsline {figure}{\numberline {22}{\ignorespaces Rébus pour le mot "bidet"}}{25}{figure.22}\protected@file@percent }
\@writefile{toc}{\contentsline {subsection}{\numberline {5.4}Mesures}{25}{subsection.5.4}\protected@file@percent }
\@writefile{lof}{\contentsline {figure}{\numberline {23}{\ignorespaces Exemples de rébus comportant l'image d'une lettre}}{26}{figure.23}\protected@file@percent }
\@writefile{lof}{\contentsline {figure}{\numberline {24}{\ignorespaces Exemples de rébus comportant des images couvrant plus d'une syllabe}}{26}{figure.24}\protected@file@percent }
\@writefile{toc}{\contentsline {subsection}{\numberline {5.5}Pistes d'amélioration}{26}{subsection.5.5}\protected@file@percent }
\@writefile{lof}{\contentsline {figure}{\numberline {25}{\ignorespaces Rébus pour le mot "nativité"}}{27}{figure.25}\protected@file@percent }
\@writefile{toc}{\contentsline {section}{\numberline {6}Gestion du projet}{28}{section.6}\protected@file@percent }
\@writefile{toc}{\contentsline {section}{\numberline {7}Bilan et Conclusions}{29}{section.7}\protected@file@percent }
\@writefile{toc}{\contentsline {section}{\numberline {8}Annexe}{30}{section.8}\protected@file@percent }
\@writefile{toc}{\contentsline {subsection}{\numberline {8.1}Liste des rébus test}{30}{subsection.8.1}\protected@file@percent }
\@writefile{toc}{\contentsline {subsection}{\numberline {8.2}Extrait de l'alphabet phonétique utilisé}{31}{subsection.8.2}\protected@file@percent }
\@writefile{lot}{\contentsline {subtable}{\numberline{(a)}{\ignorespaces {Avant simplification du phonétiseur}}}{31}{subsection.8.2}\protected@file@percent }
\@writefile{lot}{\contentsline {subtable}{\numberline{(b)}{\ignorespaces {Après simplification du phonétiseur}}}{31}{subsection.8.2}\protected@file@percent }
\@writefile{lot}{\contentsline {subtable}{\numberline{(a)}{\ignorespaces {Rébus pour le mot "aspirateur"}}}{31}{subsection.8.2}\protected@file@percent }
\@writefile{lot}{\contentsline {subtable}{\numberline{(b)}{\ignorespaces {Rébus pour le mot "coccinelle"}}}{31}{subsection.8.2}\protected@file@percent }
\@writefile{lot}{\contentsline {subtable}{\numberline{(a)}{\ignorespaces {Rébus pour le mot "impossible"}}}{31}{subsection.8.2}\protected@file@percent }
\@writefile{lot}{\contentsline {subtable}{\numberline{(b)}{\ignorespaces {Rébus pour le mot "boulangerie"}}}{31}{subsection.8.2}\protected@file@percent }
\@writefile{lot}{\contentsline {subtable}{\numberline{(a)}{\ignorespaces {Sans répétition des phonèmes}}}{31}{subsection.8.2}\protected@file@percent }
\@writefile{lot}{\contentsline {subtable}{\numberline{(b)}{\ignorespaces {Avec répétition des phonèmes}}}{31}{subsection.8.2}\protected@file@percent }
\@writefile{toc}{\contentsline {section}{\numberline {9}Webographie}{32}{section.9}\protected@file@percent }
\gdef \@abspage@last{32}
